{
   "_meta": {
      "count": 3,
      "limit": 3,
      "page": 1,
      "totalPages": 3,
      "totalRecords": 8
   },
   "feedbackSettings": [
		{
			"id": "9a24743c-5c19-4774-954e-a3ad67a734e1",
			"personId": "49a974ea-9137-419b-bcb9-ad74c81a1d1f",
			"filters": [],
			"channels": [
				{
					"contactMethod": "SMS",
					"alias": "Private mobile",
					"destination": "0796100001",
					"sendFeedback": true
				}
			],
			"created": "2022-01-10T10:00:00+01:00",
			"matchingPercent": 100
		},
		{
			"id": "9a24743c-5c19-4774-954e-a3ad67a734e2",
			"personId": "49a974ea-9137-419b-bcb9-ad74c81a1d2f",
			"filters": [],
			"channels": [
				{
					"contactMethod": "EMAIL",
					"alias": "person.2@company.com",
					"destination": "person.2@company.com",
					"sendFeedback": true
				},
				{
					"contactMethod": "SMS",
					"alias": "Private mobile",
					"destination": "0796100002",
					"sendFeedback": true
				}
			],
			"created": "2022-01-10T10:00:00+01:00",
			"matchingPercent": 100
		},
		{
			"id": "9a24743c-5c19-4774-954e-a3ad67a734e3",
			"personId": "49a974ea-9137-419b-bcb9-ad74c81a1d3f",
			"filters": [],
			"channels": [
				{
					"contactMethod": "EMAIL",
					"alias": "Hubbys email",
					"destination": "person.3@company.com",
					"sendFeedback": true
				},
				{
					"contactMethod": "SMS",
					"alias": "Hubbys mobile",
					"destination": "0796100003",
					"sendFeedback": true
				},
				{
					"contactMethod": "SMS",
					"alias": "Wifeys mobile",
					"destination": "0786100003",
					"sendFeedback": true
				}
			],
			"created": "2022-01-10T10:00:00+01:00",
			"matchingPercent": 100
		}
  ]
}